…
Overall results

A few graphs or tables (datatable?) summarizing results for each company. Add any interesting commments.

## # A tibble: 38 x 11
##    ticker n_qtrs  market_cap init_shares shares_repurcha~ dollar_repurcha~
##    <chr>   <int>       <dbl>       <dbl>            <dbl>            <dbl>
##  1 HRTG       11   427920000    29794960          1759330         25490289
##  2 PIH        11    40400000     6358125          1709863         12814830
##  3 UVE        20  1020000000    40117000         11650033         94515242
##  4 PRA        20  2530000000    61299150          9315285        426497579
##  5 PGR        20 33530000000   611155122         44108315       1120118087
##  6 HMN        20  1700000000    39773363          2644902         68470939
##  7 WRB        20  8290000000   138274272         20247925        895610752
##  8 AFG        20  9790000000    97177820         19644115        943372529
##  9 Y          20  9140000000    16928664          1561549        670768394
## 10 MKL        20 15520000000     9651672           328880        172183743
## # ... with 28 more rows, and 5 more variables: pct_init_shares <dbl>,
## #   pct_market_cap <dbl>, tsr <dbl>, irr <dbl>,
## #   buyback_effectiveness <dbl>
